{
  "metadata": {
    "datafiles": [],
    "pagination": {
      "currentPage": 0,
      "pageSize": 2,
      "totalCount": 10,
      "totalPages": 5
    },
    "status": []
  },
  "result": {
    "data": [
      {
        "active": false,
        "additionalInfo": {
          "donorName": "Donor1",
          "publications": "doi:10.2345/GEZG3T23535",
          "specialProject": "Project1"
        },
        "commonCropName": "Tomatillo",
        "documentationURL": "https://brapi.org",
        "endDate": "2013-07-05",
        "programDbId": "1",
        "programName": "Program 1",
        "startDate": "2013-01-01",
        "studies": [
          {
            "locationDbId": "1",
            "locationName": "Location 1",
            "studyDbId": "1001",
            "studyName": "Study 1"
          },
          {
            "locationDbId": "1",
            "locationName": "Location 1",
            "studyDbId": "1002",
            "studyName": "Study 2"
          }
        ],
        "trialDbId": "101",
        "trialName": "Peru Yield Trial 1"
      },
      {
        "active": false,
        "additionalInfo": {
          "donorName": "Donor1",
          "publications": "doi:10.2345/GEZG3T23535",
          "specialProject": "Project1"
        },
        "commonCropName": "Tomatillo",
        "documentationURL": "https://brapi.org",
        "endDate": "2013-07-05",
        "programDbId": "1",
        "programName": "Program 1",
        "startDate": "2013-01-01",
        "studies": [
          {
            "locationDbId": "1",
            "locationName": "Location 1",
            "studyDbId": "1001",
            "studyName": "Study 1"
          },
          {
            "locationDbId": "1",
            "locationName": "Location 1",
            "studyDbId": "1002",
            "studyName": "Study 2"
          }
        ],
        "trialDbId": "101",
        "trialName": "Peru Yield Trial 1"
      }
    ]
  }
}
